  Entangle Release Names
  ======================

Entangle releases are named after sub-atomic particles (either confirmed
or theorized)

Leptons
-------

 0.1.0 - Electron
 0.2.0 - Electron Neutrino
 0.3.0 - Tau
 0.3.1 - Tau Neutrino
 0.3.2 - Muon
 0.3.3 - Muon Neutrino


Bosons
------

 0.4.0 - Higgs Boson
 0.4.1 - Gluon
 0.5.0 - Z Boson
 0.5.1 - W Boson
 0.5.2 - Graviton
 0.5.3 - Photon


Quarks
------

 0.5.4 - Up
 0.6.0 - Down
 0.6.1 - Strange
 0.7.0 - Charm
 0.7.1 - Top
 0.7.2 - Bottom


Alkali Metals
-------------

 1.0 - Lithium
 2.0 - Sodium
 3.0 - Potassium
 - Rubidium
 - Caesium
 - Francium
